{
	"matrix": "cycle013527_3",
	"type":	"complex",
	"module": 12,
	"height": 4,
	"width": 4,
	"maxcell": 2,
	"0,0": "110000000000",
	"0,1": "000101000000",
	"0,2": "001000000000",
	"0,3": "000000010000",
	"1,0": "000000000010",
	"1,1": "000110000000",
	"1,2": "000000101000",
	"1,3": "000001000000",
	"2,0": "000000001000",
	"2,1": "010000000000",
	"2,2": "000000110000",
	"2,3": "000000000101",
	"3,0": "101000000000",
	"3,1": "000000000001",
	"3,2": "000010000000",
	"3,3": "000000000110"
}
