{
	"texture": "puntual",
	"title":	"complex",
	"composer": "Juan de los Palotes",
	"key_signature": 0,
	"time_signature": "3/4",
	"time_unit": 0.25,
	"time_measure": 3,
	"parts": 4,
	"matrix_file": "config/chain013469swap_matrix.json",
	"mode": "mobile",
	"midi_offset": 72,
	"voice_offset": -12,
	"cycles": 1
}
